sun.jws.version.2
sun.jws.classname=Server
sun.jws.useVisual=false
sun.jws.javaArguments=-DDEBU -DKILL
sun.jws.type=standalone
sun.jws.options=-g
sun.jws.classpath=List
../Extensions/classes
EndOfList
sun.jws.classpath=List
../Extensions/classes
EndOfList
sun.jws.files=List
Client.java
Consumer.java
Producer.java
Request.java
Server.java
Stopper.java
Workpile.java
EndOfList
