[
    [
        "http://localhost:8082/liners-covers/index.html", 
        "http://localhost:8082/swim-spas/index.html", 
        [
            "swim", 
            "spas"
        ]
    ], 
    [
        "http://localhost:8082/", 
        "http://localhost:8082/hot-tubs/index.html", 
        [
            "hot", 
            "tubs"
        ]
    ], 
    [
        "http://localhost:8082/locations/index.html", 
        "http://localhost:8082/pools/index.html", 
        [
            "pools"
        ]
    ], 
    [
        "http://localhost:8082/brochures", 
        "http://localhost:8082/pools/index.html", 
        [
            "pools"
        ]
    ], 
    [
        "http://localhost:8082/toys/index.html", 
        "http://localhost:8082/services", 
        [
            "services"
        ]
    ], 
    [
        "http://localhost:8082", 
        "http://localhost:8082/hot-tubs/index.html", 
        [
            "hot", 
            "tubs"
        ]
    ], 
    [
        "http://localhost:8082/dealers/index.html", 
        "http://localhost:8082/water-care/index.html", 
        [
            "action"
        ]
    ], 
    [
        "http://localhost:8082/brochures", 
        "http://localhost:8082/patios/index.html", 
        [
            "patios"
        ]
    ], 
    [
        "http://localhost:8082/water-care/index.html", 
        "http://localhost:8082/equipment-maintenance/index.html", 
        [
            "equipment", 
            "maintenance"
        ]
    ], 
    [
        "http://localhost:8082/equipment-maintenance/index.html", 
        "http://localhost:8082/swim-spas/index.html", 
        [
            "swim", 
            "spas"
        ]
    ], 
    [
        "http://localhost:8082/", 
        "http://localhost:8082/toys/index.html", 
        [
            "toys"
        ]
    ], 
    [
        "http://localhost:8082/equipment-maintenance/index.html", 
        "http://localhost:8082/hot-tubs/index.html", 
        [
            "hot", 
            "tubs"
        ]
    ], 
    [
        "http://localhost:8082/brochures", 
        "http://localhost:8082/dealers/index.html", 
        [
            "affiliate", 
            "dealers"
        ]
    ], 
    [
        "http://localhost:8082/pools/index.html", 
        "http://localhost:8082/equipment-maintenance/index.html", 
        [
            "equipment", 
            "maintenance"
        ]
    ], 
    [
        "http://localhost:8082/hot-tubs/index.html", 
        "http://localhost:8082/patios/index.html", 
        [
            "patios"
        ]
    ], 
    [
        "http://localhost:8082/brochures", 
        "http://localhost:8082/", 
        [
            "home"
        ]
    ], 
    [
        "http://localhost:8082/dealers/index.html", 
        "http://localhost:8082/services", 
        [
            "services"
        ]
    ], 
    [
        "http://localhost:8082/pools/index.html", 
        "http://localhost:8082/", 
        [
            "home"
        ]
    ], 
    [
        "http://localhost:8082/swim-spas/index.html", 
        "http://localhost:8082/brochures", 
        [
            "brochures"
        ]
    ], 
    [
        "http://localhost:8082/locations/index.html", 
        "http://localhost:8082/hot-tubs/index.html", 
        [
            "hot", 
            "tubs"
        ]
    ], 
    [
        "http://localhost:8082/water-care/index.html", 
        "http://localhost:8082/pools/index.html", 
        [
            "pools"
        ]
    ], 
    [
        "http://localhost:8082/toys/index.html", 
        "http://localhost:8082/locations/index.html", 
        [
            "locations"
        ]
    ], 
    [
        "http://localhost:8082/equipment-maintenance/index.html", 
        "http://localhost:8082/patios/index.html", 
        [
            "patios"
        ]
    ], 
    [
        "http://localhost:8082/liners-covers/index.html", 
        "http://localhost:8082/services", 
        [
            "services"
        ]
    ], 
    [
        "http://localhost:8082/hot-tubs/index.html", 
        "http://localhost:8082/locations/index.html", 
        [
            "locations"
        ]
    ], 
    [
        "http://localhost:8082/dealers/index.html", 
        "http://localhost:8082/liners-covers/index.html", 
        [
            "liners", 
            "covers"
        ]
    ], 
    [
        "http://localhost:8082/water-care/index.html", 
        "http://localhost:8082/", 
        [
            "home"
        ]
    ], 
    [
        "http://localhost:8082/toys/index.html", 
        "http://localhost:8082/swim-spas/index.html", 
        [
            "swim", 
            "spas"
        ]
    ], 
    [
        "http://localhost:8082/dealers/index.html", 
        "http://localhost:8082/equipment-maintenance/index.html", 
        [
            "equipment", 
            "maintenance"
        ]
    ], 
    [
        "http://localhost:8082/toys/index.html", 
        "http://localhost:8082/hot-tubs/index.html", 
        [
            "hot", 
            "tubs"
        ]
    ], 
    [
        "http://localhost:8082/services", 
        "http://localhost:8082/locations/index.html", 
        [
            "locations"
        ]
    ], 
    [
        "http://localhost:8082/services", 
        "http://localhost:8082/hot-tubs/index.html", 
        [
            "hot", 
            "tubs"
        ]
    ], 
    [
        "http://localhost:8082/swim-spas/index.html", 
        "http://localhost:8082/locations/index.html", 
        [
            "locations"
        ]
    ], 
    [
        "http://localhost:8082/equipment-maintenance/index.html", 
        "http://localhost:8082/locations/index.html", 
        [
            "locations"
        ]
    ], 
    [
        "http://localhost:8082/promotions/index.html", 
        "http://localhost:8082/", 
        [
            "home"
        ]
    ], 
    [
        "http://localhost:8082/", 
        "http://localhost:8082/promotions/index.html", 
        [
            "promotions"
        ]
    ], 
    [
        "http://localhost:8082/locations/index.html", 
        "http://localhost:8082/", 
        [
            "home"
        ]
    ], 
    [
        "http://localhost:8082/water-care/index.html", 
        "http://localhost:8082/liners-covers/index.html", 
        [
            "liners", 
            "covers"
        ]
    ], 
    [
        "http://localhost:8082/brochures", 
        "http://localhost:8082/promotions/index.html", 
        [
            "promotions"
        ]
    ], 
    [
        "http://localhost:8082/liners-covers/index.html", 
        "http://localhost:8082/dealers/index.html", 
        [
            "affiliate", 
            "dealers"
        ]
    ], 
    [
        "http://localhost:8082/services", 
        "http://localhost:8082/toys/index.html", 
        [
            "toys"
        ]
    ], 
    [
        "http://localhost:8082/liners-covers/index.html", 
        "http://localhost:8082/", 
        [
            "home"
        ]
    ], 
    [
        "http://localhost:8082", 
        "http://localhost:8082/patios/index.html", 
        [
            "patios"
        ]
    ], 
    [
        "http://localhost:8082/hot-tubs/index.html", 
        "http://localhost:8082/promotions/index.html", 
        [
            "promotions"
        ]
    ], 
    [
        "http://localhost:8082/hot-tubs/index.html", 
        "http://localhost:8082/equipment-maintenance/index.html", 
        [
            "equipment", 
            "maintenance"
        ]
    ], 
    [
        "http://localhost:8082/equipment-maintenance/index.html", 
        "http://localhost:8082/promotions/index.html", 
        [
            "promotions"
        ]
    ], 
    [
        "http://localhost:8082/promotions/index.html", 
        "http://localhost:8082/toys/index.html", 
        [
            "toys"
        ]
    ], 
    [
        "http://localhost:8082/locations/index.html", 
        "http://localhost:8082/dealers/index.html", 
        [
            "affiliate", 
            "dealers"
        ]
    ], 
    [
        "http://localhost:8082/brochures", 
        "http://localhost:8082/swim-spas/index.html", 
        [
            "swim", 
            "spas"
        ]
    ], 
    [
        "http://localhost:8082/locations/index.html", 
        "http://localhost:8082/services", 
        [
            "services"
        ]
    ], 
    [
        "http://localhost:8082/water-care/index.html", 
        "http://localhost:8082/swim-spas/index.html", 
        [
            "swim", 
            "spas"
        ]
    ], 
    [
        "http://localhost:8082/pools/index.html", 
        "http://localhost:8082/swim-spas/index.html", 
        [
            "swim", 
            "spas"
        ]
    ], 
    [
        "http://localhost:8082", 
        "http://localhost:8082/", 
        [
            "home"
        ]
    ], 
    [
        "http://localhost:8082/brochures", 
        "http://localhost:8082/locations/index.html", 
        [
            "locations"
        ]
    ], 
    [
        "http://localhost:8082/swim-spas/index.html", 
        "http://localhost:8082/water-care/index.html", 
        [
            "action"
        ]
    ], 
    [
        "http://localhost:8082/patios/index.html", 
        "http://localhost:8082/water-care/index.html", 
        [
            "action"
        ]
    ], 
    [
        "http://localhost:8082/promotions/index.html", 
        "http://localhost:8082/patios/index.html", 
        [
            "patios"
        ]
    ], 
    [
        "http://localhost:8082", 
        "http://localhost:8082/pools/index.html", 
        [
            "pools"
        ]
    ], 
    [
        "http://localhost:8082/swim-spas/index.html", 
        "http://localhost:8082/toys/index.html", 
        [
            "toys"
        ]
    ], 
    [
        "http://localhost:8082/equipment-maintenance/index.html", 
        "http://localhost:8082/", 
        [
            "home"
        ]
    ], 
    [
        "http://localhost:8082/swim-spas/index.html", 
        "http://localhost:8082/liners-covers/index.html", 
        [
            "liners", 
            "covers"
        ]
    ], 
    [
        "http://localhost:8082/liners-covers/index.html", 
        "http://localhost:8082/equipment-maintenance/index.html", 
        [
            "equipment", 
            "maintenance"
        ]
    ], 
    [
        "http://localhost:8082/pools/index.html", 
        "http://localhost:8082/toys/index.html", 
        [
            "toys"
        ]
    ], 
    [
        "http://localhost:8082/patios/index.html", 
        "http://localhost:8082/dealers/index.html", 
        [
            "affiliate", 
            "dealers"
        ]
    ], 
    [
        "http://localhost:8082/liners-covers/index.html", 
        "http://localhost:8082/promotions/index.html", 
        [
            "promotions"
        ]
    ], 
    [
        "http://localhost:8082/promotions/index.html", 
        "http://localhost:8082/hot-tubs/index.html", 
        [
            "hot", 
            "tubs"
        ]
    ], 
    [
        "http://localhost:8082/promotions/index.html", 
        "http://localhost:8082/swim-spas/index.html", 
        [
            "swim", 
            "spas"
        ]
    ], 
    [
        "http://localhost:8082/brochures", 
        "http://localhost:8082/services", 
        [
            "services"
        ]
    ], 
    [
        "http://localhost:8082/services", 
        "http://localhost:8082/", 
        [
            "home"
        ]
    ], 
    [
        "http://localhost:8082/water-care/index.html", 
        "http://localhost:8082/patios/index.html", 
        [
            "patios"
        ]
    ], 
    [
        "http://localhost:8082/pools/index.html", 
        "http://localhost:8082/services", 
        [
            "services"
        ]
    ], 
    [
        "http://localhost:8082/pools/index.html", 
        "http://localhost:8082/locations/index.html", 
        [
            "locations"
        ]
    ], 
    [
        "http://localhost:8082/hot-tubs/index.html", 
        "http://localhost:8082/liners-covers/index.html", 
        [
            "liners", 
            "covers"
        ]
    ], 
    [
        "http://localhost:8082/hot-tubs/index.html", 
        "http://localhost:8082/water-care/index.html", 
        [
            "action"
        ]
    ], 
    [
        "http://localhost:8082/", 
        "http://localhost:8082/liners-covers/index.html", 
        [
            "liners", 
            "covers"
        ]
    ], 
    [
        "http://localhost:8082/toys/index.html", 
        "http://localhost:8082/dealers/index.html", 
        [
            "affiliate", 
            "dealers"
        ]
    ], 
    [
        "http://localhost:8082/brochures", 
        "http://localhost:8082/liners-covers/index.html", 
        [
            "liners", 
            "covers"
        ]
    ], 
    [
        "http://localhost:8082/services", 
        "http://localhost:8082/pools/index.html", 
        [
            "pools"
        ]
    ], 
    [
        "http://localhost:8082/hot-tubs/index.html", 
        "http://localhost:8082/dealers/index.html", 
        [
            "affiliate", 
            "dealers"
        ]
    ], 
    [
        "http://localhost:8082", 
        "http://localhost:8082/swim-spas/index.html", 
        [
            "swim", 
            "spas"
        ]
    ], 
    [
        "http://localhost:8082/water-care/index.html", 
        "http://localhost:8082/services", 
        [
            "services"
        ]
    ], 
    [
        "http://localhost:8082/water-care/index.html", 
        "http://localhost:8082/brochures", 
        [
            "brochures"
        ]
    ], 
    [
        "http://localhost:8082/swim-spas/index.html", 
        "http://localhost:8082/promotions/index.html", 
        [
            "promotions"
        ]
    ], 
    [
        "http://localhost:8082/equipment-maintenance/index.html", 
        "http://localhost:8082/water-care/index.html", 
        [
            "action"
        ]
    ], 
    [
        "http://localhost:8082/", 
        "http://localhost:8082/swim-spas/index.html", 
        [
            "swim", 
            "spas"
        ]
    ], 
    [
        "http://localhost:8082/promotions/index.html", 
        "http://localhost:8082/brochures", 
        [
            "brochures"
        ]
    ], 
    [
        "http://localhost:8082/brochures", 
        "http://localhost:8082/equipment-maintenance/index.html", 
        [
            "equipment", 
            "maintenance"
        ]
    ], 
    [
        "http://localhost:8082/promotions/index.html", 
        "http://localhost:8082/services", 
        [
            "services"
        ]
    ], 
    [
        "http://localhost:8082/promotions/index.html", 
        "http://localhost:8082/dealers/index.html", 
        [
            "affiliate", 
            "dealers"
        ]
    ], 
    [
        "http://localhost:8082/swim-spas/index.html", 
        "http://localhost:8082/hot-tubs/index.html", 
        [
            "hot", 
            "tubs"
        ]
    ], 
    [
        "http://localhost:8082/dealers/index.html", 
        "http://localhost:8082/promotions/index.html", 
        [
            "promotions"
        ]
    ], 
    [
        "http://localhost:8082/patios/index.html", 
        "http://localhost:8082/hot-tubs/index.html", 
        [
            "hot", 
            "tubs"
        ]
    ], 
    [
        "http://localhost:8082/dealers/index.html", 
        "http://localhost:8082/hot-tubs/index.html", 
        [
            "hot", 
            "tubs"
        ]
    ], 
    [
        "http://localhost:8082/swim-spas/index.html", 
        "http://localhost:8082/equipment-maintenance/index.html", 
        [
            "equipment", 
            "maintenance"
        ]
    ], 
    [
        "http://localhost:8082/liners-covers/index.html", 
        "http://localhost:8082/brochures", 
        [
            "brochures"
        ]
    ], 
    [
        "http://localhost:8082/swim-spas/index.html", 
        "http://localhost:8082/", 
        [
            "home"
        ]
    ], 
    [
        "http://localhost:8082/liners-covers/index.html", 
        "http://localhost:8082/locations/index.html", 
        [
            "locations"
        ]
    ], 
    [
        "http://localhost:8082/promotions/index.html", 
        "http://localhost:8082/water-care/index.html", 
        [
            "action"
        ]
    ], 
    [
        "http://localhost:8082", 
        "http://localhost:8082/locations/index.html", 
        [
            "locations"
        ]
    ], 
    [
        "http://localhost:8082/promotions/index.html", 
        "http://localhost:8082/liners-covers/index.html", 
        [
            "liners", 
            "covers"
        ]
    ], 
    [
        "http://localhost:8082/locations/index.html", 
        "http://localhost:8082/water-care/index.html", 
        [
            "action"
        ]
    ], 
    [
        "http://localhost:8082/", 
        "http://localhost:8082/brochures", 
        [
            "brochures"
        ]
    ], 
    [
        "http://localhost:8082/swim-spas/index.html", 
        "http://localhost:8082/patios/index.html", 
        [
            "patios"
        ]
    ], 
    [
        "http://localhost:8082/water-care/index.html", 
        "http://localhost:8082/toys/index.html", 
        [
            "toys"
        ]
    ], 
    [
        "http://localhost:8082/", 
        "http://localhost:8082/dealers/index.html", 
        [
            "affiliate", 
            "dealers"
        ]
    ], 
    [
        "http://localhost:8082", 
        "http://localhost:8082/brochures", 
        [
            "brochures"
        ]
    ], 
    [
        "http://localhost:8082", 
        "http://localhost:8082/services", 
        [
            "services"
        ]
    ], 
    [
        "http://localhost:8082/swim-spas/index.html", 
        "http://localhost:8082/pools/index.html", 
        [
            "pools"
        ]
    ], 
    [
        "http://localhost:8082/dealers/index.html", 
        "http://localhost:8082/locations/index.html", 
        [
            "locations"
        ]
    ], 
    [
        "http://localhost:8082/patios/index.html", 
        "http://localhost:8082/locations/index.html", 
        [
            "locations"
        ]
    ], 
    [
        "http://localhost:8082", 
        "http://localhost:8082/toys/index.html", 
        [
            "toys"
        ]
    ], 
    [
        "http://localhost:8082/water-care/index.html", 
        "http://localhost:8082/hot-tubs/index.html", 
        [
            "hot", 
            "tubs"
        ]
    ], 
    [
        "http://localhost:8082/", 
        "http://localhost:8082/pools/index.html", 
        [
            "pools"
        ]
    ], 
    [
        "http://localhost:8082/services", 
        "http://localhost:8082/swim-spas/index.html", 
        [
            "swim", 
            "spas"
        ]
    ], 
    [
        "http://localhost:8082/pools/index.html", 
        "http://localhost:8082/dealers/index.html", 
        [
            "affiliate", 
            "dealers"
        ]
    ], 
    [
        "http://localhost:8082", 
        "http://localhost:8082/water-care/index.html", 
        [
            "action"
        ]
    ], 
    [
        "http://localhost:8082", 
        "http://localhost:8082/liners-covers/index.html", 
        [
            "liners", 
            "covers"
        ]
    ], 
    [
        "http://localhost:8082/patios/index.html", 
        "http://localhost:8082/swim-spas/index.html", 
        [
            "swim", 
            "spas"
        ]
    ], 
    [
        "http://localhost:8082/swim-spas/index.html", 
        "http://localhost:8082/services", 
        [
            "services"
        ]
    ], 
    [
        "http://localhost:8082/pools/index.html", 
        "http://localhost:8082/patios/index.html", 
        [
            "patios"
        ]
    ], 
    [
        "http://localhost:8082/patios/index.html", 
        "http://localhost:8082/brochures", 
        [
            "brochures"
        ]
    ], 
    [
        "http://localhost:8082/pools/index.html", 
        "http://localhost:8082/promotions/index.html", 
        [
            "promotions"
        ]
    ], 
    [
        "http://localhost:8082/patios/index.html", 
        "http://localhost:8082/", 
        [
            "home"
        ]
    ], 
    [
        "http://localhost:8082/toys/index.html", 
        "http://localhost:8082/water-care/index.html", 
        [
            "action"
        ]
    ], 
    [
        "http://localhost:8082/hot-tubs/index.html", 
        "http://localhost:8082/services", 
        [
            "services"
        ]
    ], 
    [
        "http://localhost:8082/promotions/index.html", 
        "http://localhost:8082/pools/index.html", 
        [
            "pools"
        ]
    ], 
    [
        "http://localhost:8082/hot-tubs/index.html", 
        "http://localhost:8082/brochures", 
        [
            "brochures"
        ]
    ], 
    [
        "http://localhost:8082/", 
        "http://localhost:8082/locations/index.html", 
        [
            "locations"
        ]
    ], 
    [
        "http://localhost:8082/locations/index.html", 
        "http://localhost:8082/liners-covers/index.html", 
        [
            "liners", 
            "covers"
        ]
    ], 
    [
        "http://localhost:8082/water-care/index.html", 
        "http://localhost:8082/promotions/index.html", 
        [
            "promotions"
        ]
    ], 
    [
        "http://localhost:8082/toys/index.html", 
        "http://localhost:8082/brochures", 
        [
            "brochures"
        ]
    ], 
    [
        "http://localhost:8082/liners-covers/index.html", 
        "http://localhost:8082/hot-tubs/index.html", 
        [
            "hot", 
            "tubs"
        ]
    ], 
    [
        "http://localhost:8082/hot-tubs/index.html", 
        "http://localhost:8082/pools/index.html", 
        [
            "pools"
        ]
    ], 
    [
        "http://localhost:8082/locations/index.html", 
        "http://localhost:8082/patios/index.html", 
        [
            "patios"
        ]
    ], 
    [
        "http://localhost:8082/promotions/index.html", 
        "http://localhost:8082/equipment-maintenance/index.html", 
        [
            "equipment", 
            "maintenance"
        ]
    ], 
    [
        "http://localhost:8082/locations/index.html", 
        "http://localhost:8082/toys/index.html", 
        [
            "toys"
        ]
    ], 
    [
        "http://localhost:8082/services", 
        "http://localhost:8082/brochures", 
        [
            "brochures"
        ]
    ], 
    [
        "http://localhost:8082/services", 
        "http://localhost:8082/water-care/index.html", 
        [
            "action"
        ]
    ], 
    [
        "http://localhost:8082/water-care/index.html", 
        "http://localhost:8082/locations/index.html", 
        [
            "locations"
        ]
    ], 
    [
        "http://localhost:8082/patios/index.html", 
        "http://localhost:8082/services", 
        [
            "services"
        ]
    ], 
    [
        "http://localhost:8082/hot-tubs/index.html", 
        "http://localhost:8082/", 
        [
            "home"
        ]
    ], 
    [
        "http://localhost:8082/brochures", 
        "http://localhost:8082/toys/index.html", 
        [
            "toys"
        ]
    ], 
    [
        "http://localhost:8082/hot-tubs/index.html", 
        "http://localhost:8082/swim-spas/index.html", 
        [
            "swim", 
            "spas"
        ]
    ], 
    [
        "http://localhost:8082/equipment-maintenance/index.html", 
        "http://localhost:8082/toys/index.html", 
        [
            "toys"
        ]
    ], 
    [
        "http://localhost:8082/", 
        "http://localhost:8082/patios/index.html", 
        [
            "patios"
        ]
    ], 
    [
        "http://localhost:8082/swim-spas/index.html", 
        "http://localhost:8082/dealers/index.html", 
        [
            "affiliate", 
            "dealers"
        ]
    ], 
    [
        "http://localhost:8082", 
        "http://localhost:8082/equipment-maintenance/index.html", 
        [
            "equipment", 
            "maintenance"
        ]
    ], 
    [
        "http://localhost:8082/pools/index.html", 
        "http://localhost:8082/hot-tubs/index.html", 
        [
            "hot", 
            "tubs"
        ]
    ], 
    [
        "http://localhost:8082/dealers/index.html", 
        "http://localhost:8082/pools/index.html", 
        [
            "pools"
        ]
    ], 
    [
        "http://localhost:8082/brochures", 
        "http://localhost:8082/hot-tubs/index.html", 
        [
            "hot", 
            "tubs"
        ]
    ], 
    [
        "http://localhost:8082/brochures", 
        "http://localhost:8082/water-care/index.html", 
        [
            "action"
        ]
    ], 
    [
        "http://localhost:8082/dealers/index.html", 
        "http://localhost:8082/patios/index.html", 
        [
            "patios"
        ]
    ], 
    [
        "http://localhost:8082/promotions/index.html", 
        "http://localhost:8082/locations/index.html", 
        [
            "locations"
        ]
    ], 
    [
        "http://localhost:8082", 
        "http://localhost:8082/dealers/index.html", 
        [
            "affiliate", 
            "dealers"
        ]
    ], 
    [
        "http://localhost:8082/equipment-maintenance/index.html", 
        "http://localhost:8082/pools/index.html", 
        [
            "pools"
        ]
    ], 
    [
        "http://localhost:8082/", 
        "http://localhost:8082/services", 
        [
            "services"
        ]
    ], 
    [
        "http://localhost:8082/locations/index.html", 
        "http://localhost:8082/equipment-maintenance/index.html", 
        [
            "equipment", 
            "maintenance"
        ]
    ], 
    [
        "http://localhost:8082/liners-covers/index.html", 
        "http://localhost:8082/patios/index.html", 
        [
            "patios"
        ]
    ], 
    [
        "http://localhost:8082/dealers/index.html", 
        "http://localhost:8082/swim-spas/index.html", 
        [
            "swim", 
            "spas"
        ]
    ], 
    [
        "http://localhost:8082/patios/index.html", 
        "http://localhost:8082/toys/index.html", 
        [
            "toys"
        ]
    ], 
    [
        "http://localhost:8082/dealers/index.html", 
        "http://localhost:8082/", 
        [
            "home"
        ]
    ], 
    [
        "http://localhost:8082/toys/index.html", 
        "http://localhost:8082/equipment-maintenance/index.html", 
        [
            "equipment", 
            "maintenance"
        ]
    ], 
    [
        "http://localhost:8082/", 
        "http://localhost:8082/water-care/index.html", 
        [
            "action"
        ]
    ], 
    [
        "http://localhost:8082/services", 
        "http://localhost:8082/equipment-maintenance/index.html", 
        [
            "equipment", 
            "maintenance"
        ]
    ], 
    [
        "http://localhost:8082/services", 
        "http://localhost:8082/promotions/index.html", 
        [
            "promotions"
        ]
    ], 
    [
        "http://localhost:8082/hot-tubs/index.html", 
        "http://localhost:8082/toys/index.html", 
        [
            "toys"
        ]
    ], 
    [
        "http://localhost:8082/pools/index.html", 
        "http://localhost:8082/water-care/index.html", 
        [
            "action"
        ]
    ], 
    [
        "http://localhost:8082/pools/index.html", 
        "http://localhost:8082/brochures", 
        [
            "brochures"
        ]
    ], 
    [
        "http://localhost:8082/locations/index.html", 
        "http://localhost:8082/promotions/index.html", 
        [
            "promotions"
        ]
    ], 
    [
        "http://localhost:8082/toys/index.html", 
        "http://localhost:8082/promotions/index.html", 
        [
            "promotions"
        ]
    ], 
    [
        "http://localhost:8082/services", 
        "http://localhost:8082/dealers/index.html", 
        [
            "affiliate", 
            "dealers"
        ]
    ], 
    [
        "http://localhost:8082/equipment-maintenance/index.html", 
        "http://localhost:8082/dealers/index.html", 
        [
            "affiliate", 
            "dealers"
        ]
    ], 
    [
        "http://localhost:8082/toys/index.html", 
        "http://localhost:8082/pools/index.html", 
        [
            "pools"
        ]
    ], 
    [
        "http://localhost:8082/liners-covers/index.html", 
        "http://localhost:8082/pools/index.html", 
        [
            "pools"
        ]
    ], 
    [
        "http://localhost:8082/services", 
        "http://localhost:8082/patios/index.html", 
        [
            "patios"
        ]
    ], 
    [
        "http://localhost:8082/equipment-maintenance/index.html", 
        "http://localhost:8082/liners-covers/index.html", 
        [
            "liners", 
            "covers"
        ]
    ], 
    [
        "http://localhost:8082/dealers/index.html", 
        "http://localhost:8082/brochures", 
        [
            "brochures"
        ]
    ], 
    [
        "http://localhost:8082/pools/index.html", 
        "http://localhost:8082/liners-covers/index.html", 
        [
            "liners", 
            "covers"
        ]
    ], 
    [
        "http://localhost:8082/services", 
        "http://localhost:8082/liners-covers/index.html", 
        [
            "liners", 
            "covers"
        ]
    ], 
    [
        "http://localhost:8082/liners-covers/index.html", 
        "http://localhost:8082/water-care/index.html", 
        [
            "action"
        ]
    ], 
    [
        "http://localhost:8082/patios/index.html", 
        "http://localhost:8082/liners-covers/index.html", 
        [
            "liners", 
            "covers"
        ]
    ], 
    [
        "http://localhost:8082/patios/index.html", 
        "http://localhost:8082/promotions/index.html", 
        [
            "promotions"
        ]
    ], 
    [
        "http://localhost:8082", 
        "http://localhost:8082/promotions/index.html", 
        [
            "promotions"
        ]
    ], 
    [
        "http://localhost:8082/toys/index.html", 
        "http://localhost:8082/", 
        [
            "home"
        ]
    ], 
    [
        "http://localhost:8082/patios/index.html", 
        "http://localhost:8082/pools/index.html", 
        [
            "pools"
        ]
    ], 
    [
        "http://localhost:8082/equipment-maintenance/index.html", 
        "http://localhost:8082/services", 
        [
            "services"
        ]
    ], 
    [
        "http://localhost:8082/equipment-maintenance/index.html", 
        "http://localhost:8082/brochures", 
        [
            "brochures"
        ]
    ], 
    [
        "http://localhost:8082/toys/index.html", 
        "http://localhost:8082/patios/index.html", 
        [
            "patios"
        ]
    ], 
    [
        "http://localhost:8082/liners-covers/index.html", 
        "http://localhost:8082/toys/index.html", 
        [
            "toys"
        ]
    ], 
    [
        "http://localhost:8082/locations/index.html", 
        "http://localhost:8082/brochures", 
        [
            "brochures"
        ]
    ], 
    [
        "http://localhost:8082/toys/index.html", 
        "http://localhost:8082/liners-covers/index.html", 
        [
            "liners", 
            "covers"
        ]
    ], 
    [
        "http://localhost:8082/locations/index.html", 
        "http://localhost:8082/swim-spas/index.html", 
        [
            "swim", 
            "spas"
        ]
    ], 
    [
        "http://localhost:8082/water-care/index.html", 
        "http://localhost:8082/dealers/index.html", 
        [
            "affiliate", 
            "dealers"
        ]
    ], 
    [
        "http://localhost:8082/patios/index.html", 
        "http://localhost:8082/equipment-maintenance/index.html", 
        [
            "equipment", 
            "maintenance"
        ]
    ], 
    [
        "http://localhost:8082/", 
        "http://localhost:8082/equipment-maintenance/index.html", 
        [
            "equipment", 
            "maintenance"
        ]
    ], 
    [
        "http://localhost:8082/dealers/index.html", 
        "http://localhost:8082/toys/index.html", 
        [
            "toys"
        ]
    ]
]