sun.jws.version.2
sun.jws.classname=Test
sun.jws.useVisual=false
sun.jws.javaArguments=-DDEBU -DKILL
sun.jws.type=standalone
sun.jws.options=-g
sun.jws.classpath=List
../Extensions/classes
EndOfList
sun.jws.classpath=List
../Extensions/classes
EndOfList
sun.jws.files=List
EnemyThread.java
FriendThread.java
Person.java
TSDThread.java
Test.java
EndOfList
