sun.jws.version.2
sun.jws.altText=If you had a java-enabled browser, you would see an applet here.
sun.jws.alignment=Top
sun.jws.classname=ThreadedAWT
sun.jws.useVisual=false
sun.jws.javaArguments=-DDEBU -DKILL
sun.jws.type=applet
sun.jws.instance=ThreadedAWT
sun.jws.options=-g
sun.jws.classpath=List
../Extensions/classes
EndOfList
sun.jws.classpath=List
../Extensions/classes
EndOfList
sun.jws.files=List
ThreadedAWT.java
ThreadedAWT.tmp.html
ThreadedButton.java
Worker.java
EndOfList
sun.jws.altHTML=List
<hr>If your browser recognized the applet tag, 
you would see an applet here.<hr>
EndOfList
