sun.jws.version.2
sun.jws.classname=Cancellation
sun.jws.useVisual=false
sun.jws.type=standalone
sun.jws.options=-g
sun.jws.classpath=List
../Extensions/classes
EndOfList
sun.jws.classpath=List
../Extensions/classes
EndOfList
sun.jws.files=List
Cancellation.java
Searcher.java
EndOfList
