sID,sName,exam,score
123,Amy,Mid1,85
234,Bob,Mid1,62
345,Craig,Mid1,24
456,Doris,Mid1,99
567,Edward,Mid1,53
678,Fay,Mid1,46
789,Gary,Mid1,75
987,Helen,Mid1,82
876,Irene,Mid1,34
765,Jay,Mid1,61
654,Amy,Mid1,46
543,Craig,Mid1,13
123,Amy,Mid2,81
234,Bob,Mid2,67
345,Craig,Mid2,29
456,Doris,Mid2,91
567,Edward,Mid2,57
678,Fay,Mid2,46
789,Gary,Mid2,71
987,Helen,Mid2,88
876,Irene,Mid2,36
765,Jay,Mid2,69
654,Amy,Mid2,45
543,Craig,Mid2,12
123,Amy,Final,80
234,Bob,Final,61
345,Craig,Final,27
456,Doris,Final,98
567,Edward,Final,50
678,Fay,Final,40
789,Gary,Final,79
987,Helen,Final,88
876,Irene,Final,31
765,Jay,Final,60
654,Amy,Final,48
543,Craig,Final,17
